<svg width="214" height="55" viewBox="0 0 214 55" fill="none" xmlns="http://www.w3.org/2000/svg">
<path d="M74.728 21.008H81.064C81.8 21.008 82.536 21.064 83.272 21.176C84.024 21.272 84.696 21.48 85.288 21.8C85.88 22.104 86.36 22.536 86.728 23.096C87.096 23.656 87.28 24.4 87.28 25.328C87.28 26.288 87.008 27.088 86.464 27.728C85.936 28.352 85.232 28.8 84.352 29.072V29.12C84.912 29.2 85.416 29.36 85.864 29.6C86.328 29.824 86.72 30.12 87.04 30.488C87.376 30.84 87.632 31.256 87.808 31.736C87.984 32.216 88.072 32.728 88.072 33.272C88.072 34.168 87.88 34.92 87.496 35.528C87.112 36.12 86.616 36.6 86.008 36.968C85.4 37.336 84.712 37.6 83.944 37.76C83.192 37.92 82.44 38 81.688 38H74.728V21.008ZM78.472 27.8H81.184C81.472 27.8 81.752 27.768 82.024 27.704C82.312 27.64 82.568 27.536 82.792 27.392C83.016 27.248 83.192 27.056 83.32 26.816C83.464 26.576 83.536 26.288 83.536 25.952C83.536 25.6 83.456 25.312 83.296 25.088C83.152 24.848 82.96 24.664 82.72 24.536C82.48 24.408 82.208 24.32 81.904 24.272C81.6 24.208 81.304 24.176 81.016 24.176H78.472V27.8ZM78.472 34.832H81.832C82.12 34.832 82.408 34.8 82.696 34.736C83 34.672 83.272 34.56 83.512 34.4C83.752 34.24 83.944 34.032 84.088 33.776C84.248 33.52 84.328 33.208 84.328 32.84C84.328 32.44 84.224 32.12 84.016 31.88C83.824 31.624 83.576 31.432 83.272 31.304C82.968 31.176 82.64 31.088 82.288 31.04C81.936 30.992 81.608 30.968 81.304 30.968H78.472V34.832ZM89.8825 26.336H93.4825V38H89.8825V26.336ZM89.5945 22.664C89.5945 22.088 89.7945 21.6 90.1945 21.2C90.6105 20.784 91.1065 20.576 91.6825 20.576C92.2585 20.576 92.7465 20.784 93.1465 21.2C93.5625 21.6 93.7705 22.088 93.7705 22.664C93.7705 23.24 93.5625 23.736 93.1465 24.152C92.7465 24.552 92.2585 24.752 91.6825 24.752C91.1065 24.752 90.6105 24.552 90.1945 24.152C89.7945 23.736 89.5945 23.24 89.5945 22.664ZM96.0689 19.856H99.6689V30.944L103.653 26.336H108.069L103.437 31.592L108.189 38H103.653L99.7169 32.096H99.6689V38H96.0689V19.856ZM120.445 35.984C119.869 36.72 119.141 37.288 118.261 37.688C117.381 38.088 116.469 38.288 115.525 38.288C114.629 38.288 113.781 38.144 112.981 37.856C112.197 37.568 111.509 37.16 110.917 36.632C110.341 36.088 109.885 35.44 109.549 34.688C109.213 33.936 109.045 33.096 109.045 32.168C109.045 31.24 109.213 30.4 109.549 29.648C109.885 28.896 110.341 28.256 110.917 27.728C111.509 27.184 112.197 26.768 112.981 26.48C113.781 26.192 114.629 26.048 115.525 26.048C116.357 26.048 117.109 26.192 117.781 26.48C118.469 26.768 119.045 27.184 119.509 27.728C119.989 28.256 120.357 28.896 120.613 29.648C120.869 30.4 120.997 31.24 120.997 32.168V33.296H112.645C112.789 33.984 113.101 34.536 113.581 34.952C114.061 35.352 114.653 35.552 115.357 35.552C115.949 35.552 116.445 35.424 116.845 35.168C117.261 34.896 117.621 34.552 117.925 34.136L120.445 35.984ZM117.397 30.848C117.413 30.24 117.213 29.72 116.797 29.288C116.381 28.856 115.845 28.64 115.189 28.64C114.789 28.64 114.437 28.704 114.133 28.832C113.829 28.96 113.565 29.128 113.341 29.336C113.133 29.528 112.965 29.76 112.837 30.032C112.725 30.288 112.661 30.56 112.645 30.848H117.397ZM132.042 25.16C131.738 24.776 131.322 24.496 130.794 24.32C130.282 24.128 129.794 24.032 129.33 24.032C129.058 24.032 128.778 24.064 128.49 24.128C128.202 24.192 127.93 24.296 127.674 24.44C127.418 24.568 127.21 24.744 127.05 24.968C126.89 25.192 126.81 25.464 126.81 25.784C126.81 26.296 127.002 26.688 127.386 26.96C127.77 27.232 128.25 27.464 128.826 27.656C129.418 27.848 130.05 28.04 130.722 28.232C131.394 28.424 132.018 28.696 132.594 29.048C133.186 29.4 133.674 29.872 134.058 30.464C134.442 31.056 134.634 31.848 134.634 32.84C134.634 33.784 134.458 34.608 134.106 35.312C133.754 36.016 133.274 36.6 132.666 37.064C132.074 37.528 131.378 37.872 130.578 38.096C129.794 38.32 128.962 38.432 128.082 38.432C126.978 38.432 125.954 38.264 125.01 37.928C124.066 37.592 123.186 37.048 122.37 36.296L125.034 33.368C125.418 33.88 125.898 34.28 126.474 34.568C127.066 34.84 127.674 34.976 128.298 34.976C128.602 34.976 128.906 34.944 129.21 34.88C129.53 34.8 129.81 34.688 130.05 34.544C130.306 34.4 130.506 34.216 130.65 33.992C130.81 33.768 130.89 33.504 130.89 33.2C130.89 32.688 130.69 32.288 130.29 32C129.906 31.696 129.418 31.44 128.826 31.232C128.234 31.024 127.594 30.816 126.906 30.608C126.218 30.4 125.578 30.12 124.986 29.768C124.394 29.416 123.898 28.952 123.498 28.376C123.114 27.8 122.922 27.04 122.922 26.096C122.922 25.184 123.098 24.384 123.45 23.696C123.818 23.008 124.298 22.432 124.89 21.968C125.498 21.504 126.194 21.16 126.978 20.936C127.762 20.696 128.57 20.576 129.402 20.576C130.362 20.576 131.29 20.712 132.186 20.984C133.082 21.256 133.89 21.712 134.61 22.352L132.042 25.16ZM140.567 19.856V27.92H140.615C140.695 27.696 140.831 27.472 141.023 27.248C141.215 27.024 141.447 26.824 141.719 26.648C141.991 26.472 142.311 26.328 142.679 26.216C143.047 26.104 143.447 26.048 143.879 26.048C144.791 26.048 145.527 26.192 146.087 26.48C146.647 26.752 147.079 27.136 147.383 27.632C147.703 28.128 147.919 28.712 148.031 29.384C148.143 30.056 148.199 30.784 148.199 31.568V38H144.599V32.288C144.599 31.952 144.583 31.608 144.551 31.256C144.535 30.888 144.463 30.552 144.335 30.248C144.223 29.944 144.039 29.696 143.783 29.504C143.543 29.312 143.191 29.216 142.727 29.216C142.263 29.216 141.887 29.304 141.599 29.48C141.311 29.64 141.087 29.864 140.927 30.152C140.783 30.424 140.687 30.736 140.639 31.088C140.591 31.44 140.567 31.808 140.567 32.192V38H136.967V19.856H140.567ZM158.069 36.536H158.021C157.621 37.16 157.085 37.608 156.413 37.88C155.757 38.152 155.061 38.288 154.325 38.288C153.781 38.288 153.253 38.208 152.741 38.048C152.245 37.904 151.805 37.68 151.421 37.376C151.037 37.072 150.733 36.696 150.509 36.248C150.285 35.8 150.173 35.28 150.173 34.688C150.173 34.016 150.293 33.448 150.533 32.984C150.789 32.52 151.125 32.136 151.541 31.832C151.973 31.528 152.461 31.296 153.005 31.136C153.549 30.96 154.109 30.832 154.685 30.752C155.277 30.672 155.861 30.624 156.437 30.608C157.029 30.592 157.573 30.584 158.069 30.584C158.069 29.944 157.837 29.44 157.373 29.072C156.925 28.688 156.389 28.496 155.765 28.496C155.173 28.496 154.629 28.624 154.133 28.88C153.653 29.12 153.221 29.456 152.837 29.888L150.917 27.92C151.589 27.296 152.373 26.832 153.269 26.528C154.165 26.208 155.093 26.048 156.053 26.048C157.109 26.048 157.973 26.184 158.645 26.456C159.333 26.712 159.877 27.096 160.277 27.608C160.693 28.12 160.981 28.752 161.141 29.504C161.301 30.24 161.381 31.096 161.381 32.072V38H158.069V36.536ZM157.181 32.888C156.909 32.888 156.565 32.904 156.149 32.936C155.749 32.952 155.357 33.016 154.973 33.128C154.605 33.24 154.285 33.408 154.013 33.632C153.757 33.856 153.629 34.168 153.629 34.568C153.629 35 153.813 35.32 154.181 35.528C154.549 35.736 154.933 35.84 155.333 35.84C155.685 35.84 156.021 35.792 156.341 35.696C156.677 35.6 156.973 35.464 157.229 35.288C157.485 35.112 157.685 34.888 157.829 34.616C157.989 34.344 158.069 34.024 158.069 33.656V32.888H157.181ZM163.639 26.336H167.239V28.208H167.287C167.671 27.488 168.127 26.952 168.655 26.6C169.183 26.232 169.847 26.048 170.647 26.048C170.855 26.048 171.063 26.056 171.271 26.072C171.479 26.088 171.671 26.12 171.847 26.168V29.456C171.591 29.376 171.335 29.32 171.079 29.288C170.839 29.24 170.583 29.216 170.311 29.216C169.623 29.216 169.079 29.312 168.679 29.504C168.279 29.696 167.967 29.968 167.743 30.32C167.535 30.656 167.399 31.064 167.335 31.544C167.271 32.024 167.239 32.552 167.239 33.128V38H163.639V26.336ZM173.461 26.336H177.061V38H173.461V26.336ZM173.173 22.664C173.173 22.088 173.373 21.6 173.773 21.2C174.189 20.784 174.685 20.576 175.261 20.576C175.837 20.576 176.325 20.784 176.725 21.2C177.141 21.6 177.349 22.088 177.349 22.664C177.349 23.24 177.141 23.736 176.725 24.152C176.325 24.552 175.837 24.752 175.261 24.752C174.685 24.752 174.189 24.552 173.773 24.152C173.373 23.736 173.173 23.24 173.173 22.664ZM179.647 26.336H183.103V27.92H183.151C183.263 27.696 183.423 27.472 183.631 27.248C183.839 27.024 184.087 26.824 184.375 26.648C184.663 26.472 184.991 26.328 185.359 26.216C185.727 26.104 186.127 26.048 186.559 26.048C187.471 26.048 188.207 26.192 188.767 26.48C189.327 26.752 189.759 27.136 190.063 27.632C190.383 28.128 190.599 28.712 190.711 29.384C190.823 30.056 190.879 30.784 190.879 31.568V38H187.279V32.288C187.279 31.952 187.263 31.608 187.231 31.256C187.215 30.888 187.143 30.552 187.015 30.248C186.903 29.944 186.719 29.696 186.463 29.504C186.223 29.312 185.871 29.216 185.407 29.216C184.943 29.216 184.567 29.304 184.279 29.48C183.991 29.64 183.767 29.864 183.607 30.152C183.463 30.424 183.367 30.736 183.319 31.088C183.271 31.44 183.247 31.808 183.247 32.192V38H179.647V26.336ZM205.668 37.016C205.668 39.224 205.108 40.896 203.988 42.032C202.884 43.184 201.196 43.76 198.924 43.76C197.884 43.76 196.86 43.64 195.852 43.4C194.844 43.176 193.916 42.728 193.068 42.056L195.06 39.08C195.62 39.544 196.204 39.912 196.812 40.184C197.436 40.456 198.116 40.592 198.852 40.592C199.956 40.592 200.764 40.32 201.276 39.776C201.804 39.248 202.068 38.568 202.068 37.736V36.608H202.02C201.604 37.168 201.084 37.568 200.46 37.808C199.852 38.032 199.276 38.144 198.732 38.144C197.868 38.144 197.084 38 196.38 37.712C195.676 37.408 195.068 36.992 194.556 36.464C194.06 35.92 193.676 35.28 193.404 34.544C193.132 33.808 192.996 33 192.996 32.12C192.996 31.352 193.116 30.6 193.356 29.864C193.612 29.128 193.964 28.48 194.412 27.92C194.876 27.36 195.436 26.912 196.092 26.576C196.748 26.224 197.492 26.048 198.324 26.048C198.836 26.048 199.3 26.104 199.716 26.216C200.148 26.328 200.532 26.472 200.868 26.648C201.204 26.824 201.492 27.024 201.732 27.248C201.972 27.456 202.164 27.664 202.308 27.872H202.356V26.336H205.668V37.016ZM196.596 32.096C196.596 32.48 196.668 32.848 196.812 33.2C196.956 33.536 197.156 33.84 197.412 34.112C197.684 34.368 197.988 34.576 198.324 34.736C198.676 34.896 199.06 34.976 199.476 34.976C199.876 34.976 200.252 34.896 200.604 34.736C200.956 34.576 201.26 34.368 201.516 34.112C201.788 33.84 201.996 33.536 202.14 33.2C202.284 32.848 202.356 32.48 202.356 32.096C202.356 31.712 202.284 31.352 202.14 31.016C201.996 30.664 201.788 30.36 201.516 30.104C201.26 29.832 200.956 29.616 200.604 29.456C200.252 29.296 199.876 29.216 199.476 29.216C199.06 29.216 198.676 29.296 198.324 29.456C197.988 29.616 197.684 29.832 197.412 30.104C197.156 30.36 196.956 30.664 196.812 31.016C196.668 31.352 196.596 31.712 196.596 32.096Z" fill="black"/>
<g clip-path="url(#clip0)">
<path d="M47.0761 15.2866V20.0669L41.9544 19.384V15.9695L47.0761 15.2866Z" fill="#00ACEA"/>
<path d="M25.4783 30.5832C26.552 29.8692 27.9604 29.9167 28.9834 30.7019C30.006 31.4866 30.4159 32.8355 30.0038 34.0568C29.5912 35.2785 28.4477 36.1024 27.1584 36.1068H27.1468C25.8179 36.1072 24.6455 35.2372 24.261 33.9648C23.8768 32.6923 24.3712 31.3185 25.4783 30.5832Z" fill="#00EFD1"/>
<path d="M10.6151 44.7497C16.2192 44.7431 20.8549 40.387 21.2097 34.7944H23.7354C24.252 35.8383 25.2208 36.5857 26.3616 36.8204V39.4609C26.3616 39.901 26.7182 40.2576 27.1583 40.2576C27.5985 40.2576 27.9551 39.901 27.9551 39.4609V36.8169C29.6743 36.4443 30.9151 34.9429 30.9574 33.1841C30.9996 31.4253 29.8321 29.8666 28.1324 29.4122L41.0358 18.6802L41.8263 23.8321C36.3801 25.185 32.9287 30.5432 33.9477 36.0615C34.9672 41.5794 40.1058 45.3508 45.6756 44.6688C51.2455 43.9868 55.3224 39.0874 54.98 33.4864C54.6381 27.8855 49.9957 23.5182 44.3845 23.5187C44.0542 23.5187 43.7243 23.5356 43.3975 23.5658L42.8982 20.3136L46.9707 20.8565C47.1983 20.8867 47.4282 20.8173 47.6011 20.6662C47.7736 20.515 47.8728 20.2963 47.8728 20.0669V15.2866C47.8728 15.0568 47.7736 14.8385 47.6007 14.6873C47.4282 14.5357 47.1983 14.4663 46.9707 14.497L42.1055 15.1457L41.7481 12.8173C41.54 11.464 40.3979 10.4508 39.0294 10.4054L34.9614 10.2712C34.676 10.2596 34.4056 10.4023 34.254 10.6446C34.1024 10.8869 34.0922 11.1924 34.2278 11.4444C34.363 11.6961 34.623 11.8561 34.9089 11.8637L38.9774 11.998C39.5794 12.018 40.0817 12.4639 40.1733 13.0592L40.7131 16.5781L23.4082 18.6797L23.0837 16.1287H26.2478C26.688 16.1287 27.0445 15.7721 27.0445 15.332C27.0445 14.8918 26.688 14.5352 26.2478 14.5352H19.3051C18.8649 14.5352 18.5084 14.8918 18.5084 15.332C18.5084 15.7721 18.8649 16.1287 19.3051 16.1287H21.4773L22.3416 22.9207L18.0189 26.5286C14.5888 23.1901 9.34887 22.5597 5.22484 24.9903C1.10124 27.4209 -0.885639 32.3105 0.374335 36.9285C1.63386 41.5465 5.82859 44.7502 10.6151 44.7497V44.7497ZM42.7511 16.6671L46.2794 16.1962V19.1568L42.7511 18.6864V16.6671ZM44.3845 25.1121C49.1345 25.117 53.0652 28.8084 53.3688 33.5491C53.672 38.2894 50.2438 42.4516 45.5329 43.0621C40.822 43.6725 36.4459 40.5217 35.5309 35.8606C34.6159 31.199 37.476 26.6277 42.0682 25.4122L43.3664 33.875C43.4082 34.1578 43.598 34.3965 43.8643 34.5006C44.1302 34.605 44.4316 34.5588 44.6544 34.3796C44.8771 34.2005 44.9865 33.9155 44.9416 33.6336L43.6389 25.1428C43.8866 25.1228 44.1355 25.1121 44.3845 25.1121V25.1121ZM17.8499 28.7453C18.8205 30.0466 19.4211 31.5863 19.5883 33.201H12.5117L17.8499 28.7453ZM29.3653 33.093C29.3631 34.0048 28.8038 34.8229 27.9551 35.1559V33.7701C27.9551 33.3299 27.5985 32.9734 27.1583 32.9734C26.7182 32.9734 26.3616 33.3299 26.3616 33.7701V35.1666C25.2301 34.7371 24.6513 33.4807 25.0603 32.3421C25.2226 31.8944 25.524 31.5107 25.9197 31.2466L25.921 31.2457C26.6017 30.794 27.4758 30.7531 28.1956 31.139C28.9158 31.5253 29.3649 32.2758 29.3653 33.093ZM38.8729 18.4068L24.9816 29.9604C24.9394 29.9897 24.8976 30.02 24.8562 30.0511L23.6109 20.2603L38.8729 18.4068ZM22.9725 27.8797H22.9738L23.4976 31.9957C23.3904 32.3518 23.3357 32.7217 23.3362 33.0934C23.3362 33.1294 23.3393 33.1654 23.3402 33.2015H21.1866C21.0123 31.2132 20.2796 29.3148 19.0739 27.7245L22.5804 24.7973L22.9725 27.8797ZM10.6151 25.1121C12.9083 25.1134 15.1152 25.9871 16.7878 27.556L9.80325 33.3855C9.54538 33.6003 9.44979 33.9537 9.56405 34.2694C9.67831 34.5846 9.97797 34.7949 10.3136 34.7944H19.6105C19.2517 39.6778 15.0628 43.3831 10.1727 43.1434C5.28219 42.9034 1.47559 38.8064 1.59563 33.9115C1.71611 29.017 5.71878 25.1117 10.6151 25.1121V25.1121Z" fill="#083863"/>
</g>
<defs>
<clipPath id="clip0">
<rect width="55" height="55" fill="white"/>
</clipPath>
</defs>
</svg>
